[
    {
        "FileName": "213",
        "Status": "Appian",
        "Records": "Ready for Remediation",
        "Errors": "Blank or Invalid contry, Blank or invalid submitting country",
        "LastUpdate": "HCP",
        "VendorName": "Medical Affairs"
    },
    {
        "FileName": "214",
        "Status": "Appian",
        "Records": "complete-automated",
        "Errors": "",
        "LastUpdate": "HCP",
        "VendorName": "Medical Affairs"
    },
    {
        "FileName": "215",
        "Status": "Appian",
        "Records": "complete-automated",
        "Errors": "",
        "LastUpdate": "HCP",
        "VendorName": "Standard Mart"
    },
    {
        "FileName": "216",
        "Status": "Appian",
        "Records": "complete-automated",
        "Errors": "",
        "LastUpdate": "HCP",
        "VendorName": "Medical Affairs"
    },
    {
        "FileName": "217",
        "Status": "Appian",
        "Records": "complete-automated",
        "Errors": "",
        "LastUpdate": "HCP",
        "VendorName": "Avanti Prefect"
    }
]